﻿{
  "BundleName": "chicken bundle",
  "Operations": [
    {
      "Name": "DropItemsOperation",
      "Keywords": [
        "jan","nick", "florian", "marc", "terraria", "twitch", "wieso", "error", "so", "blödsinn", "speech", "speed", "discord", "schade", "hund", "chicken", "ach", "ah",
        "verdammt", "fuck", "azure", "microsoft",
		"twitch", "internet", "whatsapp", "bot", "random", "programmieren", "namen", "mist", "channel"
      ]
    }
  ]
}